    [
        {
            "id": 1,
            "name": "Assistant Media Planner",
            "accesslevel": 1
        },
        {
            "id": 2,
            "name": "Civil Engineer",
            "accesslevel": 2
        },
        {
            "id": 3,
            "name": "Recruiting Manager",
            "accesslevel": 3
        },
        {
            "id": 4,
            "name": "Research Nurse",
            "accesslevel": 4
        },
        {
            "id": 5,
            "name": "Senior Editor",
            "accesslevel": 5
        },
        {
            "id": 6,
            "name": "Dental Hygienist",
            "accesslevel": 6
        },
        {
            "id": 7,
            "name": "Computer Systems Analyst II",
            "accesslevel": 7
        },
        {
            "id": 8,
            "name": "Pharmacist",
            "accesslevel": 8
        },
        {
            "id": 9,
            "name": "Teacher",
            "accesslevel": 9
        },
        {
            "id": 10,
            "name": "Senior Developer",
            "accesslevel": 10
        }
    ]