[
    {
        "ID": 1,
        "Name": "Barrie",
        "LastName": "Scougall",
        "TagUID": "44ac4044-0972-413d-890a-772a12caeade",
        "Confirmed": true,
        "AccessLevel": 3,
        "BirthDate" : "12.02.1985",
        "UserGroupID" : null,
        "UserGroupName" : null
    },
    {
        "ID": 2,
        "Name": "August",
        "LastName": "Caton",
        "TagUID": "cbeae47c-725d-400d-9937-d522735f8ab6",
        "Confirmed": true,
        "AccessLevel": 3,
        "BirthDate" : "12.02.1985",
        "UserGroupID" : 4,
        "UserGroupName" : "Manager"
    },
    {
        "ID": 3,
        "Name": "Raynor",
        "LastName": "Stelfox",
        "TagUID": "ec89943b-1104-4dac-84ee-ed00dcd73c05",
        "Confirmed": false,
        "AccessLevel": 3,
        "BirthDate" : "12.02.1985",
        "UserGroupID" : 5,
        "UserGroupName" : "Manager"
    },
    {
        "ID": 4,
        "Name": "Max",
        "LastName": "Grasser",
        "TagUID": "95098950-1f72-467b-af78-9fbafe4ae814",
        "Confirmed": false,
        "AccessLevel": 2,
        "BirthDate" : "12.02.1985",
        "UserGroupID" : 6,
        "UserGroupName" : "Manager"
    },
    {
        "ID": 5,
        "Name": "Walden",
        "LastName": "Pumphreys",
        "TagUID": "6fd6d967-d1ec-441b-86bd-e5072134c72c",
        "Confirmed": true,
        "AccessLevel": 2,
        "BirthDate" : "12.02.1985",
        "UserGroupID" : 7,
        "UserGroupName" : "Manager"
    },
    {
        "ID": 6,
        "Name": "Raynor",
        "LastName": "Stelfox",
        "TagUID": "ec89943b-1104-4dac-84ee-ed00dcd73c05",
        "Confirmed": false,
        "AccessLevel": 3,
        "BirthDate" : "12.02.1985",
        "UserGroupID" : 7,
        "UserGroupName" : "Manager"
    },
    {
        "ID": 7,
        "Name": "Max",
        "LastName": "Grasser",
        "TagUID": "95098950-1f72-467b-af78-9fbafe4ae814",
        "Confirmed": false,
        "AccessLevel": 2,
        "BirthDate" : "12.02.1985",
        "UserGroupID" : 2,
        "UserGroupName" : "Manager"
    },
    {
        "ID": 8,
        "Name": "Walden",
        "LastName": "Pumphreys",
        "TagUID": "6fd6d967-d1ec-441b-86bd-e5072134c72c",
        "Confirmed": true,
        "AccessLevel": 3,
        "BirthDate" : "12.02.1985",
        "UserGroupID" : 5,
        "UserGroupName" : "Manager"
    },
    {
        "ID": 9,
        "Name": "Barrie",
        "LastName": "Scougall",
        "TagUID": "44ac4044-0972-413d-890a-772a12caeade",
        "Confirmed": true,
        "AccessLevel": 2,
        "BirthDate" : "12.02.1985",
        "UserGroupID" : 3,
        "UserGroupName" : "Manager"
    },
    {
        "ID": 10,
        "Name": "August",
        "LastName": "Caton",
        "TagUID": "cbeae47c-725d-400d-9937-d522735f8ab6",
        "Confirmed": true,
        "AccessLevel": 3,
        "BirthDate" : "12.02.1985",
        "UserGroupID" : 3,
        "UserGroupName" : "Manager"
    },
    {
        "ID": 11,
        "Name": "Raynor",
        "LastName": "Stelfox",
        "TagUID": "ec89943b-1104-4dac-84ee-ed00dcd73c05",
        "Confirmed": false,
        "AccessLevel": 2,
        "BirthDate" : "12.02.1985",
        "UserGroupID" : 4,
        "UserGroupName" : "Manager"
    },
    {
        "ID": 12,
        "Name": "Patrick",
        "LastName": "Grasser",
        "TagUID": "95098950-1f72-467b-af78-9fbafe4ae814",
        "Confirmed": false,
        "AccessLevel": 3,
        "BirthDate" : "12.02.1985",
        "UserGroupID" : 1,
        "UserGroupName" : "Manager"
    },
    {
        "ID": 13,
        "Name": "Raymond",
        "LastName": "Reddington",
        "TagUID": "6fd6d967-d1ec-441b-86bd-e5072134c72c",
        "Confirmed": true,
        "AccessLevel": 3,
        "BirthDate" : "12.02.1985",
        "UserGroupID" : 1,
        "UserGroupName" : "Manager"
    },
    {
        "ID": 14,
        "Name": "Jhon",
        "LastName": "Whick",
        "TagUID": "ec89943b-1104-4dac-84ee-ed00dcd73c05",
        "Confirmed": false,
        "AccessLevel": 3,
        "BirthDate" : "12.02.1985",
        "UserGroupID" : 1,
        "UserGroupName" : "Manager"
    },
    {
        "ID": 15,
        "Name": "Spongebob",
        "LastName": "Schwammkopf",
        "TagUID": "95098950-1f72-467b-af78-9fbafe4ae814",
        "Confirmed": false,
        "AccessLevel": 3,
        "BirthDate" : "12.02.1985",
        "UserGroupID" : 1,
        "UserGroupName" : "Manager"
    },
    {
        "ID": 16,
        "Name": "Rick",
        "LastName": "Sanchez",
        "TagUID": "6fd6d967-d1ec-441b-86bd-e5072134c72c",
        "Confirmed": true,
        "AccessLevel": 999,
        "BirthDate" : "12.02.1985",
        "UserGroupID" : 1,
        "UserGroupName" : "Manager"
    }
]